[
    {
        "id": 0,
        "title": "Random Sentence 0",
        "text": "Across the cancelled hospital reckons every realized staircase.",
        "author": "Beomjun Shin"
    },
    {
        "id": 1,
        "title": "Random Sentence 1",
        "text": "Whatever miscellaneous lyric pretends below the recruit.",
        "author": "Beomjun Shin"
    },
    {
        "id": 2,
        "title": "Random Sentence 2",
        "text": "A lump comprehends the intimate.",
        "author": "Beomjun Shin"
    },
    {
        "id": 3,
        "title": "Random Sentence 3",
        "text": "Why won't the burden run behind the unexpected campus?",
        "author": "Beomjun Shin"
    },
    {
        "id": 4,
        "title": "Random Sentence 4",
        "text": "The excessive grave distracts a broadcast.",
        "author": "Beomjun Shin"
    },
    {
        "id": 5,
        "title": "Random Sentence 5",
        "text": "In a viewer rockets the difficult pedestrian.",
        "author": "Beomjun Shin"
    },
    {
        "id": 6,
        "title": "Random Sentence 6",
        "text": "The center confirms the stare behind the detected contributor.",
        "author": "Beomjun Shin"
    },
    {
        "id": 7,
        "title": "Random Sentence 7",
        "text": "The potential despairs without a teapot!",
        "author": "Beomjun Shin"
    },
    {
        "id": 8,
        "title": "Random Sentence 8",
        "text": "The chancellor fasts underneath a sorry fruit.",
        "author": "Beomjun Shin"
    },
    {
        "id": 9,
        "title": "Random Sentence 9",
        "text": "Opposite a light surfaces a seventh.",
        "author": "Beomjun Shin"
    }
]