[
    {
        "id": 0,
        "title": "Random Sentence 0",
        "text": "A nuts courtesy sickens into the innocence.",
        "author": "Beomjun Shin"
    },
    {
        "id": 1,
        "title": "Random Sentence 1",
        "text": "The apology reclaims the constant.",
        "author": "Beomjun Shin"
    },
    {
        "id": 2,
        "title": "Random Sentence 2",
        "text": "The disappearing aunt queries a disguised postage.",
        "author": "Beomjun Shin"
    },
    {
        "id": 3,
        "title": "Random Sentence 3",
        "text": "Why does the shut paradox respond underneath a debt?",
        "author": "Beomjun Shin"
    },
    {
        "id": 4,
        "title": "Random Sentence 4",
        "text": "The attribute tosses the feeble curriculum.",
        "author": "Beomjun Shin"
    },
    {
        "id": 5,
        "title": "Random Sentence 5",
        "text": "Within the rod reaches an underground mouth.",
        "author": "Beomjun Shin"
    },
    {
        "id": 6,
        "title": "Random Sentence 6",
        "text": "A flawed breakfast retracts the interpreter beneath the mangled pain.",
        "author": "Beomjun Shin"
    },
    {
        "id": 7,
        "title": "Random Sentence 7",
        "text": "The oil accepts!",
        "author": "Beomjun Shin"
    },
    {
        "id": 8,
        "title": "Random Sentence 8",
        "text": "The striking tile dodges past a mass quantum.",
        "author": "Beomjun Shin"
    },
    {
        "id": 9,
        "title": "Random Sentence 9",
        "text": "A unique bag foams.",
        "author": "Beomjun Shin"
    }
]